40
Coordinates from ORCA-job AgPtPOP_Krupp_ES_fitted E -4627.546162374264
  Ag      0.020000      5.250000      0.000000
  Pt     -1.385000      0.000000      0.000000
  Pt      1.385000      0.000000      0.000000
  P      -1.532007     -1.372051     -1.933680
  P      -1.475960      1.443887      1.886517
  P      -1.502353      1.838946     -1.495935
  P      -1.559933     -1.901236      1.407706
  P       1.543877      1.482186      1.860550
  P       1.446881     -1.377025     -1.935181
  P       1.504847     -1.797804      1.499398
  P       1.518682      1.823315     -1.510583
  O      -0.021533     -1.283737     -2.645705
  O       0.039370      2.202896      1.936448
  O       0.015983      2.010978     -2.166227
  O       0.025580     -2.328197      1.826869
  O      -2.495367     -0.966224     -3.026787
  O      -1.784424      0.884522      3.252127
  O      -1.850592      3.238303     -0.921674
  O      -2.150498     -3.170123      0.827099
  O       1.912185      0.929381      3.219800
  O       2.492639     -1.072979     -2.977351
  O       2.277602     -3.122952      1.016315
  O       1.903883      3.216609     -0.950384
  O      -1.567155     -2.959847     -1.642251
  O      -2.377957      2.776135      1.670285
  O      -2.399318      1.637010     -2.792810
  O      -2.190892     -1.645759      2.846952
  O       2.446451      2.802676      1.610912
  O       1.465199     -3.016622     -1.612434
  O       2.192221     -1.561878      2.897824
  O       2.424997      1.586690     -2.800889
  H      -1.865989     -3.139574     -0.676594
  H      -2.393682      3.006092      0.708929
  H      -2.062570     -0.681785      3.123849
  H       2.449122      3.018645      0.643355
  H       2.084492     -3.278162      0.067494
  H       2.118341     -0.564028      3.148130
  H       2.540639      0.604746     -2.978433
  H      -2.513724      0.647557     -2.989246
  H       0.551975     -3.351538     -1.679457
40
Coordinates from ORCA-job AgPtPOP_Krupp_ES_fitted E -4627.559090462152
  Ag      0.020000      5.250000      0.000000
  Pt     -1.385000     -0.000000      0.000000
  Pt      1.385000      0.000000     -0.000000
  P      -1.510969     -1.397576     -1.948499
  P      -1.456710      1.452168      1.902900
  P      -1.480277      1.871947     -1.501591
  P      -1.555493     -1.918488      1.418301
  P       1.524330      1.486007      1.876687
  P       1.442446     -1.395369     -1.949952
  P       1.483662     -1.848735      1.508543
  P       1.512090      1.856418     -1.505105
  O      -0.014942     -1.306309     -2.672117
  O       0.038558      2.208231      1.967989
  O       0.025287      2.044904     -2.175509
  O       0.009417     -2.374370      1.838841
  O      -2.490169     -0.990777     -3.019607
  O      -1.780446      0.875585      3.255306
  O      -1.844511      3.241221     -0.914203
  O      -2.177911     -3.162663      0.831603
  O       1.904887      0.914612      3.221453
  O       2.498306     -1.073821     -2.968688
  O       2.252879     -3.163955      1.015915
  O       1.909610      3.218968     -0.928144
  O      -1.550159     -2.978696     -1.657917
  O      -2.370019      2.760822      1.678698
  O      -2.382019      1.656312     -2.791800
  O      -2.187889     -1.655368      2.851071
  O       2.437655      2.783166      1.620373
  O       1.495279     -3.022557     -1.618329
  O       2.173155     -1.624419      2.903458
  O       2.431027      1.605036     -2.781451
  H      -1.851117     -3.169337     -0.697009
  H      -2.353383      3.016233      0.715492
  H      -2.051902     -0.692537      3.136248
  H       2.406441      3.025743      0.651408
  H       2.061797     -3.328868      0.063751
  H       2.111285     -0.627916      3.167187
  H       2.543302      0.627222     -2.970699
  H      -2.492101      0.672963     -3.000726
  H       0.595182     -3.395050     -1.693545
40
Coordinates from ORCA-job AgPtPOP_Krupp_ES_fitted E -4627.565993442715
  Ag      0.020000      5.250000      0.000000
  Pt     -1.385000     -0.000000      0.000000
  Pt      1.385000      0.000000     -0.000000
  P      -1.508686     -1.382548     -1.944378
  P      -1.425566      1.433846      1.913912
  P      -1.470055      1.888140     -1.471482
  P      -1.531612     -1.929959      1.400316
  P       1.505581      1.452373      1.884775
  P       1.415890     -1.396382     -1.961471
  P       1.472530     -1.856524      1.495718
  P       1.483554      1.863840     -1.491766
  O      -0.032640     -1.296063     -2.687301
  O       0.044698      2.178271      1.995581
  O       0.011569      2.052706     -2.167172
  O       0.010873     -2.395837      1.830498
  O      -2.505053     -0.950590     -2.979717
  O      -1.759862      0.828797      3.248234
  O      -1.845872      3.221966     -0.876906
  O      -2.163835     -3.150827      0.791969
  O       1.895536      0.832078      3.200635
  O       2.473253     -1.048103     -2.959580
  O       2.263001     -3.149516      1.014327
  O       1.900526      3.191355     -0.914729
  O      -1.570560     -2.953027     -1.650658
  O      -2.347397      2.714080      1.683461
  O      -2.388582      1.635029     -2.742518
  O      -2.176553     -1.667274      2.821479
  O       2.428121      2.721997      1.630863
  O       1.488830     -3.009992     -1.642637
  O       2.151571     -1.593875      2.884097
  O       2.403319      1.570611     -2.755031
  H      -1.871452     -3.145759     -0.696381
  H      -2.310847      2.991397      0.718954
  H      -2.049926     -0.704235      3.115865
  H       2.370138      2.999252      0.663049
  H       2.096877     -3.335567      0.058635
  H       2.080012     -0.598377      3.129987
  H       2.508537      0.595964     -2.944170
  H      -2.496775      0.659802     -2.949616
  H       0.604085     -3.418376     -1.724231
40
Coordinates from ORCA-job AgPtPOP_Krupp_ES_fitted E -4627.566333575999
  Ag      0.020000      5.250000     -0.000000
  Pt     -1.385000     -0.000000      0.000000
  Pt      1.385000      0.000000      0.000000
  P      -1.498760     -1.375358     -1.962162
  P      -1.417662      1.418766      1.930079
  P      -1.451564      1.912466     -1.430655
  P      -1.529960     -1.957316      1.375353
  P       1.496542      1.445743      1.904265
  P       1.414298     -1.388154     -1.973296
  P       1.461619     -1.911998      1.444828
  P       1.482854      1.894209     -1.425043
  O      -0.028595     -1.285328     -2.708473
  O       0.040661      2.162924      2.031581
  O       0.025248      2.088580     -2.121471
  O       0.001422     -2.452383      1.783995
  O      -2.500850     -0.937576     -2.988490
  O      -1.759844      0.797903      3.255184
  O      -1.838036      3.223734     -0.816066
  O      -2.191560     -3.159314      0.761877
  O       1.895639      0.836163      3.220941
  O       2.473858     -1.025658     -2.962740
  O       2.227178     -3.187324      0.895949
  O       1.901982      3.195325     -0.813857
  O      -1.560145     -2.942926     -1.681889
  O      -2.346967      2.684918      1.697588
  O      -2.372884      1.668498     -2.700848
  O      -2.160149     -1.698697      2.801341
  O       2.415918      2.705295      1.632314
  O       1.496929     -2.995387     -1.668415
  O       2.168174     -1.723105      2.827715
  O       2.421125      1.616240     -2.675570
  H      -1.869637     -3.147814     -0.731783
  H      -2.276518      2.997931      0.745148
  H      -2.025080     -0.737585      3.102206
  H       2.327084      2.999374      0.671555
  H       2.052983     -3.336518     -0.061085
  H       2.132034     -0.732822      3.117823
  H       2.532191      0.645644     -2.888979
  H      -2.487281      0.697591     -2.925123
  H       0.627565     -3.427420     -1.769734
40
Coordinates from ORCA-job AgPtPOP_Krupp_ES_fitted E -4627.567668447894
  Ag      0.020000      5.250000      0.000000
  Pt     -1.385000     -0.000000     -0.000000
  Pt      1.385000      0.000000      0.000000
  P      -1.496575     -1.335139     -2.010973
  P      -1.418487      1.373540      1.971706
  P      -1.456425      1.942513     -1.394781
  P      -1.524426     -1.996068      1.348289
  P       1.498864      1.392683      1.952079
  P       1.415885     -1.332655     -2.025653
  P       1.468228     -1.938647      1.421083
  P       1.474642      1.922664     -1.400892
  O      -0.028585     -1.214390     -2.758873
  O       0.042731      2.110749      2.104240
  O       0.015926      2.124792     -2.095484
  O       0.008424     -2.494891      1.748693
  O      -2.505415     -0.880008     -3.026460
  O      -1.767447      0.717240      3.279282
  O      -1.836536      3.246665     -0.752299
  O      -2.186674     -3.195364      0.724598
  O       1.889323      0.735776      3.249354
  O       2.471973     -0.929872     -3.006534
  O       2.252266     -3.202496      0.871423
  O       1.894853      3.219218     -0.772734
  O      -1.541641     -2.911133     -1.783865
  O      -2.346608      2.647708      1.772720
  O      -2.391443      1.730942     -2.660399
  O      -2.155996     -1.759435      2.778120
  O       2.427191      2.656565      1.730913
  O       1.504077     -2.949981     -1.789228
  O       2.159619     -1.756814      2.813304
  O       2.413449      1.667434     -2.655303
  H      -1.861632     -3.154062     -0.842047
  H      -2.240550      3.018477      0.844618
  H      -2.033689     -0.798550      3.087705
  H       2.307923      3.022080      0.797646
  H       2.093237     -3.347702     -0.087468
  H       2.113177     -0.769310      3.111625
  H       2.523896      0.699822     -2.891111
  H      -2.517499      0.762887     -2.906270
  H       0.645051     -3.389488     -1.930560
40
Coordinates from ORCA-job AgPtPOP_Krupp_ES_fitted E -4627.568154315233
  Ag      0.020000      5.250000     -0.000000
  Pt     -1.385000     -0.000000      0.000000
  Pt      1.385000      0.000000      0.000000
  P      -1.503359     -1.285104     -2.023916
  P      -1.418731      1.333369      1.992938
  P      -1.460621      1.985696     -1.341274
  P      -1.536409     -2.034806      1.281996
  P       1.505421      1.338396      1.972031
  P       1.414005     -1.276510     -2.054601
  P       1.460903     -1.968033      1.378406
  P       1.470739      1.964360     -1.364536
  O      -0.037667     -1.156451     -2.779919
  O       0.048953      2.060070      2.152002
  O       0.008134      2.179388     -2.051790
  O      -0.002299     -2.538396      1.682588
  O      -2.522097     -0.818913     -3.028208
  O      -1.777656      0.656533      3.288600
  O      -1.830845      3.283062     -0.664931
  O      -2.176895     -3.216067      0.597473
  O       1.898691      0.641546      3.248958
  O       2.464666     -0.842085     -3.032192
  O       2.257776     -3.222571      0.820660
  O       1.884088      3.253944     -0.703346
  O      -1.552869     -2.864430     -1.807747
  O      -2.344855      2.614570      1.811935
  O      -2.404321      1.812916     -2.606303
  O      -2.194022     -1.860407      2.710649
  O       2.442457      2.603627      1.778930
  O       1.523979     -2.897063     -1.855777
  O       2.131690     -1.799204      2.784132
  O       2.411141      1.753280     -2.625400
  H      -1.872144     -3.112276     -0.868786
  H      -2.222144      3.012690      0.897158
  H      -2.092725     -0.909176      3.058955
  H       2.304316      3.010290      0.865716
  H       2.108395     -3.360881     -0.140549
  H       2.069568     -0.817823      3.095059
  H       2.521465      0.792836     -2.898101
  H      -2.528656      0.851594     -2.885133
  H       0.676200     -3.350874     -2.015543
40
Coordinates from ORCA-job AgPtPOP_Krupp_ES_fitted E -4627.568303780455
  Ag      0.020000      5.250000     -0.000000
  Pt     -1.385000     -0.000000     -0.000000
  Pt      1.385000      0.000000      0.000000
  P      -1.497565     -1.223007     -2.050303
  P      -1.431613      1.272658      2.012413
  P      -1.441882      2.009332     -1.311511
  P      -1.547545     -2.036927      1.246334
  P       1.495058      1.278362      1.997254
  P       1.424445     -1.209742     -2.074087
  P       1.452140     -1.998913      1.314182
  P       1.485424      2.002171     -1.304575
  O      -0.028322     -1.077124     -2.800635
  O       0.036629      1.994251      2.200541
  O       0.030958      2.216951     -2.010303
  O      -0.014613     -2.565983      1.619978
  O      -2.512044     -0.715854     -3.041077
  O      -1.798617      0.555277      3.284661
  O      -1.814620      3.304746     -0.624789
  O      -2.216754     -3.203403      0.561098
  O       1.889886      0.546879      3.255158
  O       2.479719     -0.745531     -3.035835
  O       2.229903     -3.247413      0.715294
  O       1.875703      3.284149     -0.605961
  O      -1.555493     -2.808251     -1.882531
  O      -2.358824      2.557451      1.860034
  O      -2.373430      1.845788     -2.587157
  O      -2.181934     -1.859258      2.685915
  O       2.433015      2.547583      1.830859
  O       1.549666     -2.830791     -1.907232
  O       2.138767     -1.866016      2.716636
  O       2.445656      1.829700     -2.555115
  H      -1.879807     -3.084832     -0.954262
  H      -2.222890      2.988989      0.959907
  H      -2.057382     -0.913760      3.037356
  H       2.289526      2.978318      0.929696
  H       2.069280     -3.363217     -0.247161
  H       2.096537     -0.889393      3.044872
  H       2.559338      0.877346     -2.856404
  H      -2.484621      0.889671     -2.880519
  H       0.712739     -3.295926     -2.087928
40
Coordinates from ORCA-job AgPtPOP_Krupp_ES_fitted E -4627.568889619820
  Ag      0.020000      5.250000     -0.000000
  Pt     -1.385000     -0.000000     -0.000000
  Pt      1.385000      0.000000      0.000000
  P      -1.486829     -1.194422     -2.083967
  P      -1.431366      1.243108      2.046968
  P      -1.445571      2.043629     -1.253315
  P      -1.531866     -2.077738      1.197503
  P       1.488024      1.250224      2.038369
  P       1.431422     -1.172324     -2.102819
  P       1.463287     -2.028125      1.261085
  P       1.469195      2.036802     -1.253115
  O      -0.018929     -1.027580     -2.831451
  O       0.032280      1.960560      2.256285
  O       0.019021      2.257657     -1.960459
  O       0.000469     -2.613473      1.553558
  O      -2.500884     -0.670045     -3.065339
  O      -1.804015      0.509762      3.308305
  O      -1.801487      3.323339     -0.532314
  O      -2.197682     -3.227826      0.483279
  O       1.876386      0.501476      3.287649
  O       2.489730     -0.685829     -3.049718
  O       2.249398     -3.249961      0.625829
  O       1.849843      3.305870     -0.529673
  O      -1.538573     -2.780906     -1.954893
  O      -2.357594      2.526874      1.907998
  O      -2.392280      1.912735     -2.521174
  O      -2.168905     -1.943613      2.638243
  O       2.428235      2.517273      1.897290
  O       1.556706     -2.793539     -1.975494
  O       2.153454     -1.933232      2.662523
  O       2.431307      1.886533     -2.503129
  H      -1.874482     -3.083668     -1.038317
  H      -2.227002      2.967292      1.011034
  H      -2.059554     -1.002976      3.012535
  H       2.296163      2.962041      0.999688
  H       2.107250     -3.328177     -0.342867
  H       2.110420     -0.964259      3.021354
  H       2.532552      0.941738     -2.829457
  H      -2.519183      0.964781     -2.832504
  H       0.733344     -3.262484     -2.199986
40
Coordinates from ORCA-job AgPtPOP_Krupp_ES_fitted E -4627.569195184753
  Ag      0.020000      5.250000      0.000000
  Pt     -1.385000     -0.000000      0.000000
  Pt      1.385000      0.000000     -0.000000
  P      -1.481395     -1.178936     -2.085194
  P      -1.433052      1.231231      2.054873
  P      -1.439998      2.055745     -1.240197
  P      -1.534414     -2.074910      1.182394
  P       1.492021      1.234924      2.044140
  P       1.436515     -1.144935     -2.116426
  P       1.462968     -2.031049      1.239548
  P       1.473904      2.051678     -1.230115
  O      -0.017079     -1.002776     -2.839059
  O       0.034557      1.937811      2.281864
  O       0.026604      2.268871     -1.946318
  O      -0.000867     -2.618033      1.528486
  O      -2.505023     -0.660961     -3.059911
  O      -1.812812      0.485650      3.306951
  O      -1.786831      3.330544     -0.501862
  O      -2.207115     -3.217868      0.463691
  O       1.894279      0.473946      3.282079
  O       2.489647     -0.638105     -3.058555
  O       2.247866     -3.248726      0.596423
  O       1.832063      3.315217     -0.480122
  O      -1.521999     -2.765624     -1.956761
  O      -2.354269      2.520954      1.931143
  O      -2.384734      1.945097     -2.511404
  O      -2.168310     -1.944230      2.624254
  O       2.425103      2.509513      1.913699
  O       1.574091     -2.767444     -2.011935
  O       2.155865     -1.943013      2.639690
  O       2.450167      1.929923     -2.472336
  H      -1.832735     -3.067941     -1.032569
  H      -2.230219      2.966540      1.037349
  H      -2.067392     -1.001778      2.997957
  H       2.287479      2.964556      1.024196
  H       2.110426     -3.313830     -0.374763
  H       2.089558     -0.982422      3.017603
  H       2.560644      0.990574     -2.810025
  H      -2.502006      1.002000     -2.841575
  H       0.766035     -3.241827     -2.275947
40
Coordinates from ORCA-job AgPtPOP_Krupp_ES_fitted E -4627.569400255517
  Ag      0.020000      5.250000     -0.000000
  Pt     -1.385000      0.000000     -0.000000
  Pt      1.385000     -0.000000      0.000000
  P      -1.482486     -1.162837     -2.081311
  P      -1.450474      1.237837      2.048876
  P      -1.446012      2.050933     -1.245474
  P      -1.517568     -2.063369      1.191937
  P       1.487592      1.242564      2.041389
  P       1.441604     -1.143278     -2.106764
  P       1.482779     -2.009857      1.238758
  P       1.472474      2.054295     -1.233215
  O      -0.011111     -1.016375     -2.831452
  O       0.024006      1.928678      2.294708
  O       0.023193      2.255235     -1.956542
  O       0.021159     -2.591670      1.548853
  O      -2.487821     -0.616038     -3.058076
  O      -1.848321      0.493287      3.295787
  O      -1.778011      3.324206     -0.492830
  O      -2.171148     -3.214748      0.471505
  O       1.906112      0.480145      3.273774
  O       2.495853     -0.634794     -3.045864
  O       2.248775     -3.233907      0.586738
  O       1.804055      3.316929     -0.464606
  O      -1.566199     -2.748253     -1.956051
  O      -2.357591      2.539370      1.929531
  O      -2.390246      1.951641     -2.518518
  O      -2.164232     -1.933996      2.626884
  O       2.405992      2.530494      1.921103
  O       1.592228     -2.766207     -1.989799
  O       2.208660     -1.913222      2.620566
  O       2.456854      1.956971     -2.471815
  H      -1.915071     -3.038750     -1.043656
  H      -2.229546      2.985110      1.039723
  H      -2.085027     -0.986647      2.997857
  H       2.265647      2.987776      1.036576
  H       2.087708     -3.298513     -0.382607
  H       2.146987     -0.952167      3.000434
  H       2.566118      1.021553     -2.817514
  H      -2.500873      1.010480     -2.851632
  H       0.805383     -3.250264     -2.295684
40
Coordinates from ORCA-job AgPtPOP_Krupp_ES_fitted E -4627.569615663442
  Ag      0.020000      5.250000      0.000000
  Pt     -1.385000     -0.000000      0.000000
  Pt      1.385000      0.000000     -0.000000
  P      -1.463709     -1.191182     -2.069447
  P      -1.470852      1.265891      2.028071
  P      -1.449053      2.034624     -1.271408
  P      -1.517153     -2.052614      1.221912
  P       1.472276      1.256590      2.040272
  P       1.459106     -1.142676     -2.099926
  P       1.481858     -2.003778      1.262770
  P       1.470883      2.039987     -1.251116
  O       0.005084     -1.042219     -2.822388
  O       0.007661      1.940827      2.281859
  O       0.022816      2.227651     -1.982106
  O       0.020757     -2.576123      1.586639
  O      -2.473652     -0.667049     -3.052199
  O      -1.893504      0.545613      3.280898
  O      -1.780447      3.310792     -0.529883
  O      -2.170729     -3.210667      0.514517
  O       1.884058      0.502138      3.279798
  O       2.501729     -0.612510     -3.037996
  O       2.236141     -3.237373      0.617201
  O       1.796588      3.306138     -0.492501
  O      -1.529524     -2.774696     -1.924636
  O      -2.361264      2.574242      1.880912
  O      -2.388604      1.922255     -2.546635
  O      -2.161667     -1.908646      2.654971
  O       2.390340      2.543445      1.923268
  O       1.640894     -2.762830     -1.978503
  O       2.221606     -1.896903      2.635182
  O       2.454496      1.930597     -2.489816
  H      -1.825978     -3.058095     -0.992424
  H      -2.222405      2.999746      0.984165
  H      -2.071548     -0.960006      3.023844
  H       2.266322      2.987015      1.029604
  H       2.061067     -3.312939     -0.349365
  H       2.165378     -0.931887      3.008191
  H       2.557488      0.991685     -2.824465
  H      -2.500840      0.975624     -2.861759
  H       0.874487     -3.264137     -2.306235
40
Coordinates from ORCA-job AgPtPOP_Krupp_ES_fitted E -4627.569421131676
  Ag      0.020000      5.250000     -0.000000
  Pt     -1.385000      0.000000     -0.000000
  Pt      1.385000     -0.000000      0.000000
  P      -1.491293     -1.192300     -2.078980
  P      -1.438827      1.269032      2.043046
  P      -1.451878      2.027621     -1.288704
  P      -1.525447     -2.058485      1.236084
  P       1.502652      1.289986      2.015701
  P       1.426181     -1.188610     -2.091571
  P       1.468301     -2.006215      1.312872
  P       1.463824      2.023627     -1.283821
  O      -0.018532     -1.071178     -2.824027
  O       0.036521      1.951293      2.272169
  O       0.014129      2.203069     -2.012191
  O       0.005714     -2.576682      1.625264
  O      -2.484916     -0.641334     -3.062340
  O      -1.833941      0.542565      3.301720
  O      -1.777145      3.308111     -0.567033
  O      -2.169711     -3.220479      0.528114
  O       1.951982      0.573420      3.264551
  O       2.483384     -0.705162     -3.036276
  O       2.240590     -3.244907      0.700756
  O       1.796960      3.292449     -0.544707
  O      -1.589936     -2.773116     -1.946620
  O      -2.338907      2.569328      1.918915
  O      -2.398108      1.898917     -2.556658
  O      -2.186396     -1.907126      2.659283
  O       2.401013      2.581626      1.848477
  O       1.565144     -2.809095     -1.934826
  O       2.180954     -1.878118      2.695929
  O       2.434857      1.892860     -2.529979
  H      -1.850271     -3.063965     -1.004814
  H      -2.220175      2.995619      1.016139
  H      -2.109110     -0.953736      3.020798
  H       2.260592      2.989523      0.940315
  H       2.095759     -3.330193     -0.269126
  H       2.089201     -0.912613      3.066130
  H       2.533979      0.946130     -2.846995
  H      -2.518881      0.944932     -2.848259
  H       0.806263     -3.302119     -2.289087
40
Coordinates from ORCA-job AgPtPOP_Krupp_ES_fitted E -4627.569937911998
  Ag      0.020000      5.250000     -0.000000
  Pt     -1.385000     -0.000000     -0.000000
  Pt      1.385000      0.000000      0.000000
  P      -1.481856     -1.190804     -2.079470
  P      -1.453692      1.261307      2.036849
  P      -1.447705      2.042803     -1.275709
  P      -1.521064     -2.057608      1.222318
  P       1.486093      1.263249      2.035276
  P       1.436399     -1.166632     -2.101156
  P       1.474528     -2.009973      1.284152
  P       1.465057      2.041047     -1.262190
  O      -0.011963     -1.057337     -2.829770
  O       0.022091      1.935682      2.285462
  O       0.019205      2.224881     -1.995488
  O       0.011881     -2.578422      1.605006
  O      -2.486254     -0.658786     -3.064111
  O      -1.866315      0.532347      3.289195
  O      -1.772170      3.321948     -0.543770
  O      -2.168550     -3.217967      0.511816
  O       1.909720      0.518362      3.277387
  O       2.487987     -0.667933     -3.046532
  O       2.238131     -3.246726      0.654019
  O       1.790628      3.309113     -0.513321
  O      -1.571575     -2.772102     -1.936011
  O      -2.350774      2.564407      1.901901
  O      -2.392312      1.931028     -2.546121
  O      -2.175845     -1.906965      2.649680
  O       2.397977      2.551423      1.902331
  O       1.591047     -2.786118     -1.954394
  O       2.199389     -1.891080      2.663038
  O       2.445997      1.927236     -2.501946
  H      -1.868043     -3.058051     -1.003224
  H      -2.223294      2.990044      1.000325
  H      -2.091996     -0.955378      3.010786
  H       2.257868      2.991200      1.006845
  H       2.087970     -3.322421     -0.315099
  H       2.142096     -0.919787      3.021912
  H       2.559116      0.982440     -2.825091
  H      -2.503774      0.980584     -2.861253
  H       0.842354     -3.286303     -2.320231
40
Coordinates from ORCA-job AgPtPOP_Krupp_ES_fitted E -4627.570043461825
  Ag      0.020000      5.250000     -0.000000
  Pt     -1.385000      0.000000     -0.000000
  Pt      1.385000     -0.000000     -0.000000
  P      -1.481104     -1.179210     -2.078693
  P      -1.457777      1.260569      2.037171
  P      -1.450458      2.040405     -1.264900
  P      -1.520330     -2.056961      1.216430
  P       1.488573      1.258162      2.036913
  P       1.443613     -1.142312     -2.100532
  P       1.477341     -2.008568      1.273277
  P       1.463033      2.040511     -1.249377
  O      -0.007872     -1.045433     -2.826301
  O       0.022372      1.925006      2.297544
  O       0.017308      2.223674     -1.985085
  O       0.014679     -2.575791      1.598324
  O      -2.478942     -0.634097     -3.063852
  O      -1.885270      0.536308      3.287765
  O      -1.769169      3.320377     -0.524955
  O      -2.165180     -3.217455      0.502981
  O       1.922658      0.511940      3.275374
  O       2.487085     -0.619295     -3.043150
  O       2.231994     -3.245618      0.631206
  O       1.781866      3.310448     -0.494790
  O      -1.583765     -2.760800     -1.944201
  O      -2.341754      2.574182      1.897828
  O      -2.396274      1.934521     -2.535484
  O      -2.175244     -1.911595      2.644488
  O       2.394256      2.552833      1.904703
  O       1.618604     -2.760940     -1.962143
  O       2.208947     -1.898589      2.649809
  O       2.445043      1.930087     -2.489342
  H      -1.887710     -3.050021     -1.014801
  H      -2.198729      3.004666      1.001506
  H      -2.093096     -0.960132      3.008655
  H       2.246070      2.997330      1.013911
  H       2.069284     -3.317226     -0.336948
  H       2.140214     -0.932845      3.024217
  H       2.544547      0.988245     -2.821709
  H      -2.504745      0.985755     -2.855015
  H       0.893356     -3.270915     -2.360151
40
Coordinates from ORCA-job AgPtPOP_Krupp_ES_fitted E -4627.570174194380
  Ag      0.020000      5.250000      0.000000
  Pt     -1.385000     -0.000000     -0.000000
  Pt      1.385000      0.000000      0.000000
  P      -1.489592     -1.180300     -2.076727
  P      -1.455725      1.265641      2.036378
  P      -1.449741      2.038698     -1.271156
  P      -1.520270     -2.054329      1.224812
  P       1.492182      1.262027      2.035841
  P       1.433268     -1.153392     -2.098998
  P       1.476681     -2.005580      1.281402
  P       1.462040      2.040312     -1.254632
  O      -0.016806     -1.054181     -2.825274
  O       0.025495      1.924501      2.298505
  O       0.017434      2.217651     -1.993983
  O       0.014178     -2.567239      1.615644
  O      -2.485375     -0.631191     -3.061761
  O      -1.886022      0.543756      3.287698
  O      -1.765597      3.319983     -0.534248
  O      -2.160599     -3.218756      0.513923
  O       1.929163      0.518729      3.275359
  O       2.479003     -0.643728     -3.046304
  O       2.225557     -3.247081      0.641423
  O       1.775467      3.310781     -0.500658
  O      -1.600566     -2.760167     -1.940654
  O      -2.337925      2.579561      1.895766
  O      -2.397068      1.930469     -2.540232
  O      -2.180388     -1.904571      2.649793
  O       2.397307      2.556217      1.900058
  O       1.596256     -2.771250     -1.946701
  O       2.214930     -1.890603      2.653647
  O       2.446739      1.931764     -2.492512
  H      -1.877135     -3.049196     -1.002837
  H      -2.202174      3.003071      0.994494
  H      -2.103707     -0.950783      3.010593
  H       2.253064      2.994153      1.005146
  H       2.060635     -3.320569     -0.326314
  H       2.159034     -0.919670      3.018584
  H       2.547898      0.989145     -2.824535
  H      -2.505679      0.980223     -2.856181
  H       0.890769     -3.283015     -2.375981
40
Coordinates from ORCA-job AgPtPOP_Krupp_ES_fitted E -4627.570313710987
  Ag      0.020000      5.250000     -0.000000
  Pt     -1.385000     -0.000000     -0.000000
  Pt      1.385000      0.000000      0.000000
  P      -1.504423     -1.186971     -2.075513
  P      -1.445398      1.267690      2.039865
  P      -1.446723      2.041561     -1.279489
  P      -1.520012     -2.053056      1.236130
  P       1.504286      1.266254      2.034136
  P       1.417386     -1.160030     -2.099664
  P       1.474567     -2.006340      1.297986
  P       1.459562      2.038210     -1.262532
  O      -0.032170     -1.072258     -2.825099
  O       0.036985      1.915708      2.307448
  O       0.018162      2.210251     -2.008388
  O       0.011543     -2.556276      1.646200
  O      -2.496214     -0.636204     -3.064010
  O      -1.879482      0.542672      3.288990
  O      -1.754139      3.325135     -0.547499
  O      -2.151081     -3.224102      0.527628
  O       1.955577      0.529741      3.273257
  O       2.456834     -0.655162     -3.056737
  O       2.214487     -3.255700      0.662789
  O       1.767590      3.309124     -0.512082
  O      -1.636938     -2.762140     -1.932446
  O      -2.325519      2.581868      1.903738
  O      -2.400065      1.935937     -2.543280
  O      -2.189964     -1.896139      2.655633
  O       2.402179      2.563191      1.887696
  O       1.578035     -2.773130     -1.925324
  O       2.217358     -1.886411      2.666812
  O       2.447728      1.926382     -2.497361
  H      -1.890498     -3.048961     -0.987113
  H      -2.204535      2.997343      0.994457
  H      -2.111725     -0.941611      3.015356
  H       2.248816      2.996481      0.991015
  H       2.043585     -3.335915     -0.303112
  H       2.170884     -0.910202      3.023444
  H       2.547212      0.981915     -2.828168
  H      -2.514076      0.982895     -2.856091
  H       0.937805     -3.299548     -2.430442
40
Coordinates from ORCA-job AgPtPOP_Krupp_ES_fitted E -4627.570817953499
  Ag      0.020000      5.250000      0.000000
  Pt     -1.385000     -0.000000     -0.000000
  Pt      1.385000      0.000000     -0.000000
  P      -1.516230     -1.190571     -2.075309
  P      -1.442911      1.274340      2.038750
  P      -1.446225      2.040011     -1.283913
  P      -1.516559     -2.051408      1.244746
  P       1.510791      1.267841      2.035311
  P       1.408443     -1.160499     -2.097179
  P       1.477633     -2.004116      1.306635
  P       1.456284      2.037529     -1.265644
  O      -0.041398     -1.090065     -2.822457
  O       0.042522      1.906989      2.317502
  O       0.017179      2.205092     -2.016948
  O       0.014505     -2.546053      1.666504
  O      -2.498730     -0.630719     -3.069010
  O      -1.891727      0.555418      3.287131
  O      -1.747558      3.325743     -0.553317
  O      -2.143262     -3.228484      0.541725
  O       1.972530      0.534516      3.273335
  O       2.440173     -0.657421     -3.064707
  O       2.213903     -3.258076      0.675042
  O       1.757358      3.309262     -0.515367
  O      -1.678180     -2.760403     -1.930041
  O      -2.311799      2.595105      1.895588
  O      -2.403339      1.935049     -2.544153
  O      -2.190233     -1.887884      2.661847
  O       2.404193      2.567344      1.884502
  O       1.576626     -2.766404     -1.894002
  O       2.222252     -1.878957      2.673921
  O       2.448999      1.927831     -2.496836
  H      -1.906251     -3.047919     -0.977998
  H      -2.184463      3.007620      0.984655
  H      -2.108657     -0.932366      3.019145
  H       2.247175      2.998068      0.986633
  H       2.044159     -3.338610     -0.290888
  H       2.175113     -0.899932      3.026848
  H       2.543017      0.983347     -2.832942
  H      -2.514055      0.980385     -2.858344
  H       1.026011     -3.314019     -2.475290
40
Coordinates from ORCA-job AgPtPOP_Krupp_ES_fitted E -4627.571322921900
  Ag      0.020000      5.250000     -0.000000
  Pt     -1.385000     -0.000000      0.000000
  Pt      1.385000      0.000000     -0.000000
  P      -1.519296     -1.193260     -2.079700
  P      -1.448766      1.279571      2.035427
  P      -1.446201      2.036114     -1.282199
  P      -1.512821     -2.051367      1.245793
  P       1.509760      1.265209      2.041200
  P       1.414761     -1.146113     -2.097831
  P       1.483687     -2.002699      1.307042
  P       1.453891      2.037634     -1.263048
  O      -0.038417     -1.105581     -2.820391
  O       0.039832      1.897413      2.328089
  O       0.016214      2.206986     -2.016727
  O       0.019469     -2.539627      1.673757
  O      -2.487591     -0.620589     -3.082346
  O      -1.914942      0.570929      3.284332
  O      -1.746620      3.324784     -0.551757
  O      -2.138581     -3.232900      0.547670
  O       1.976586      0.531797      3.278192
  O       2.427891     -0.626942     -3.079214
  O       2.225943     -3.257611      0.681737
  O       1.752028      3.309949     -0.510782
  O      -1.719084     -2.756124     -1.936439
  O      -2.305996      2.607500      1.876814
  O      -2.405055      1.928484     -2.540122
  O      -2.188181     -1.884276      2.662681
  O       2.401269      2.567364      1.892138
  O       1.617429     -2.739289     -1.865131
  O       2.220930     -1.873102      2.678724
  O       2.451830      1.932536     -2.489863
  H      -1.930585     -3.047561     -0.980997
  H      -2.164994      3.017677      0.966208
  H      -2.106989     -0.927025      3.014730
  H       2.241478      3.001691      0.995926
  H       2.069964     -3.332195     -0.286671
  H       2.164495     -0.893192      3.030790
  H       2.537636      0.989759     -2.837456
  H      -2.507126      0.973039     -2.859365
  H       1.177152     -3.316325     -2.508545
40
Coordinates from ORCA-job AgPtPOP_Krupp_ES_fitted E -4627.571795277730
  Ag      0.020000      5.250000      0.000000
  Pt     -1.385000      0.000000      0.000000
  Pt      1.385000     -0.000000     -0.000000
  P      -1.529884     -1.188991     -2.076782
  P      -1.446061      1.277862      2.035640
  P      -1.447058      2.034653     -1.282058
  P      -1.511094     -2.048992      1.245805
  P       1.516079      1.263978      2.042612
  P       1.408846     -1.142210     -2.107579
  P       1.486405     -2.002534      1.309187
  P       1.452579      2.037274     -1.261106
  O      -0.049117     -1.113395     -2.820042
  O       0.044296      1.886520      2.338283
  O       0.015617      2.206475     -2.016973
  O       0.020612     -2.529745      1.685291
  O      -2.491829     -0.606015     -3.080461
  O      -1.920935      0.567822      3.280671
  O      -1.744707      3.324479     -0.550769
  O      -2.128442     -3.233450      0.544942
  O       1.993707      0.535111      3.278488
  O       2.404610     -0.612427     -3.102054
  O       2.218347     -3.262368      0.682288
  O       1.747699      3.309798     -0.506793
  O      -1.757975     -2.746046     -1.931826
  O      -2.295257      2.611547      1.878747
  O      -2.406585      1.927982     -2.538893
  O      -2.195954     -1.884167      2.658980
  O       2.400356      2.570843      1.889550
  O       1.623183     -2.730769     -1.872528
  O       2.231742     -1.879176      2.677387
  O       2.452112      1.933412     -2.486269
  H      -1.945046     -3.038896     -0.971806
  H      -2.142943      3.030379      0.973167
  H      -2.118552     -0.927538      3.012885
  H       2.238710      3.001165      0.991979
  H       2.059717     -3.332058     -0.286179
  H       2.189603     -0.897521      3.030211
  H       2.523475      0.993430     -2.844896
  H      -2.500907      0.973035     -2.864810
  H       1.291804     -3.312796     -2.574447
40
Coordinates from ORCA-job AgPtPOP_Krupp_ES_fitted E -4627.572335751403
  Ag      0.020000      5.250000     -0.000000
  Pt     -1.385000     -0.000000     -0.000000
  Pt      1.385000      0.000000      0.000000
  P      -1.533187     -1.190247     -2.074414
  P      -1.452798      1.276956      2.027333
  P      -1.449727      2.033359     -1.283211
  P      -1.509431     -2.043603      1.246132
  P       1.513784      1.269572      2.031483
  P       1.411027     -1.155327     -2.110929
  P       1.489432     -1.991761      1.316874
  P       1.454404      2.028877     -1.266198
  O      -0.051144     -1.132827     -2.814618
  O       0.039051      1.886025      2.334864
  O       0.014764      2.201880     -2.017924
  O       0.022380     -2.515847      1.694357
  O      -2.482490     -0.597077     -3.084481
  O      -1.934278      0.570400      3.270816
  O      -1.745089      3.324404     -0.549857
  O      -2.117063     -3.232335      0.544742
  O       2.003714      0.548573      3.266587
  O       2.390188     -0.622538     -3.120530
  O       2.216954     -3.255859      0.695606
  O       1.756281      3.302548     -0.513522
  O      -1.790626     -2.741909     -1.928784
  O      -2.302451      2.609429      1.862590
  O      -2.411304      1.931167     -2.537949
  O      -2.203330     -1.881938      2.656035
  O       2.390167      2.580746      1.869474
  O       1.634826     -2.741390     -1.873154
  O       2.238283     -1.870587      2.684253
  O       2.450409      1.916975     -2.492924
  H      -1.960371     -3.034422     -0.964935
  H      -2.162559      3.015302      0.950767
  H      -2.128513     -0.926866      3.011918
  H       2.226196      3.004559      0.970420
  H       2.064181     -3.320330     -0.274343
  H       2.197083     -0.893513      3.045461
  H       2.501583      0.980372     -2.859918
  H      -2.514853      0.976048     -2.863388
  H       1.420038     -3.320306     -2.623228
40
Coordinates from ORCA-job AgPtPOP_Krupp_ES_fitted E -4627.572529166559
  Ag      0.020000      5.250000      0.000000
  Pt     -1.385000     -0.000000      0.000000
  Pt      1.385000      0.000000     -0.000000
  P      -1.539518     -1.194437     -2.074766
  P      -1.451589      1.279026      2.033373
  P      -1.446060      2.036142     -1.291011
  P      -1.513072     -2.043059      1.250238
  P       1.515072      1.273111      2.031672
  P       1.406576     -1.162041     -2.107123
  P       1.484393     -1.990462      1.325126
  P       1.457287      2.026324     -1.271315
  O      -0.056319     -1.154691     -2.808772
  O       0.040775      1.883968      2.342872
  O       0.019252      2.196383     -2.025867
  O       0.016619     -2.506627      1.710661
  O      -2.478727     -0.594817     -3.090469
  O      -1.933019      0.569740      3.274910
  O      -1.739514      3.328758     -0.562678
  O      -2.109276     -3.236073      0.547098
  O       2.011596      0.553674      3.264678
  O       2.373602     -0.627364     -3.127000
  O       2.203599     -3.260630      0.707887
  O       1.758112      3.301204     -0.521910
  O      -1.820968     -2.740899     -1.928113
  O      -2.298718      2.612414      1.876314
  O      -2.405589      1.934053     -2.546034
  O      -2.219344     -1.882530      2.653888
  O       2.387894      2.585174      1.868269
  O       1.650267     -2.742042     -1.852806
  O       2.239073     -1.866394      2.688503
  O       2.455463      1.909657     -2.495558
  H      -1.967881     -3.035401     -0.960683
  H      -2.163876      3.020389      0.963321
  H      -2.155398     -0.925535      3.007010
  H       2.225506      3.006676      0.966801
  H       2.054844     -3.325062     -0.262593
  H       2.201898     -0.888645      3.044593
  H       2.508032      0.971923     -2.859740
  H      -2.506741      0.977258     -2.872101
  H       1.563017     -3.320661     -2.628191
40
Coordinates from ORCA-job AgPtPOP_Krupp_ES_fitted E -4627.572956710533
  Ag      0.020000      5.250000     -0.000000
  Pt     -1.385000      0.000000      0.000000
  Pt      1.385000     -0.000000     -0.000000
  P      -1.534685     -1.185377     -2.088895
  P      -1.458084      1.265009      2.047865
  P      -1.442415      2.049315     -1.279247
  P      -1.519393     -2.059227      1.232273
  P       1.503979      1.261209      2.043632
  P       1.418463     -1.148301     -2.114732
  P       1.478014     -2.002327      1.311078
  P       1.463054      2.039153     -1.261462
  O      -0.050182     -1.154754     -2.809617
  O       0.031590      1.880166      2.356906
  O       0.024087      2.215906     -2.007585
  O       0.009122     -2.526557      1.685791
  O      -2.464260     -0.572334     -3.105792
  O      -1.933952      0.546908      3.284462
  O      -1.747570      3.338315     -0.550858
  O      -2.110580     -3.247686      0.517991
  O       1.993144      0.530159      3.270611
  O       2.362115     -0.589308     -3.142696
  O       2.207701     -3.267396      0.698134
  O       1.775615      3.313109     -0.513993
  O      -1.832439     -2.732147     -1.961239
  O      -2.306539      2.596834      1.901205
  O      -2.390904      1.944784     -2.540442
  O      -2.230822     -1.916069      2.635309
  O       2.380905      2.569707      1.891729
  O       1.718526     -2.721504     -1.878661
  O       2.222055     -1.876991      2.679770
  O       2.458882      1.923085     -2.486364
  H      -1.977887     -3.034472     -0.994862
  H      -2.163027      3.020985      0.996436
  H      -2.162713     -0.964654      2.999133
  H       2.233456      2.996357      0.987484
  H       2.098534     -3.317903     -0.278241
  H       2.167122     -0.905424      3.033665
  H       2.522978      0.986370     -2.853412
  H      -2.476353      0.989211     -2.877360
  H       1.750877     -3.272353     -2.678998
40
Coordinates from ORCA-job AgPtPOP_Krupp_ES_fitted E -4627.573140523235
  Ag      0.020000      5.250000      0.000000
  Pt     -1.385000      0.000000      0.000000
  Pt      1.385000     -0.000000     -0.000000
  P      -1.537625     -1.198966     -2.079112
  P      -1.460590      1.270993      2.035146
  P      -1.445512      2.040551     -1.283031
  P      -1.512725     -2.049892      1.243172
  P       1.506274      1.271849      2.038175
  P       1.419115     -1.155802     -2.113248
  P       1.483551     -1.996634      1.320429
  P       1.459588      2.037426     -1.266993
  O      -0.052690     -1.180812     -2.799248
  O       0.030283      1.881215      2.349526
  O       0.020134      2.208874     -2.013303
  O       0.014735     -2.511995      1.705159
  O      -2.461664     -0.586702     -3.102047
  O      -1.947646      0.560779      3.272481
  O      -1.747424      3.329685     -0.552050
  O      -2.106260     -3.245143      0.542176
  O       2.000941      0.552789      3.270453
  O       2.351707     -0.599396     -3.153394
  O       2.205474     -3.267002      0.708843
  O       1.770640      3.312442     -0.521564
  O      -1.853273     -2.740599     -1.940268
  O      -2.305351      2.604217      1.873978
  O      -2.398142      1.934822     -2.540840
  O      -2.223339     -1.889132      2.645000
  O       2.375566      2.584637      1.875864
  O       1.730067     -2.723058     -1.866053
  O       2.234198     -1.868151      2.685499
  O       2.453019      1.922529     -2.493418
  H      -1.980167     -3.039628     -0.970753
  H      -2.162954      3.016347      0.964568
  H      -2.146584     -0.935736      3.000533
  H       2.221325      3.006949      0.971192
  H       2.102909     -3.313390     -0.269055
  H       2.185835     -0.893142      3.035912
  H       2.496557      0.989148     -2.874990
  H      -2.488394      0.976678     -2.871136
  H       1.881675     -3.257803     -2.662914
40
Coordinates from ORCA-job AgPtPOP_Krupp_ES_fitted E -4627.570439586595
  Ag      0.020000      5.250000     -0.000000
  Pt     -1.385000     -0.000000      0.000000
  Pt      1.385000     -0.000000      0.000000
  P      -1.527857     -1.224123     -2.058509
  P      -1.461206      1.286227      2.022133
  P      -1.447812      2.021384     -1.293646
  P      -1.515086     -2.036520      1.255610
  P       1.504692      1.292908      2.021887
  P       1.431558     -1.176781     -2.099266
  P       1.482296     -1.983884      1.328213
  P       1.465812      2.022535     -1.278933
  O      -0.044193     -1.207664     -2.777875
  O       0.028393      1.917495      2.311083
  O       0.021659      2.195496     -2.015348
  O       0.014337     -2.501900      1.710337
  O      -2.459179     -0.629547     -3.084512
  O      -1.927793      0.585809      3.271963
  O      -1.761772      3.310949     -0.566550
  O      -2.116714     -3.234325      0.566680
  O       1.982458      0.582441      3.264828
  O       2.365537     -0.629981     -3.142482
  O       2.201333     -3.255247      0.715829
  O       1.791677      3.302092     -0.544771
  O      -1.819007     -2.773169     -1.902642
  O      -2.319182      2.612038      1.852814
  O      -2.393296      1.902948     -2.557028
  O      -2.220439     -1.861719      2.658765
  O       2.381991      2.600538      1.850937
  O       1.748235     -2.748375     -1.860591
  O       2.237352     -1.852882      2.691881
  O       2.449429      1.892520     -2.511855
  H      -1.967039     -3.052866     -0.931463
  H      -2.177184      3.021258      0.944627
  H      -2.149726     -0.903407      3.000470
  H       2.231868      3.019921      0.945604
  H       2.108618     -3.295739     -0.264078
  H       2.196625     -0.876589      3.039392
  H       2.489967      0.955239     -2.880673
  H      -2.483793      0.942870     -2.876192
  H       1.817273     -3.279838     -2.671473
40
Coordinates from ORCA-job AgPtPOP_Krupp_ES_fitted E -4627.573239393872
  Ag      0.020000      5.250000      0.000000
  Pt     -1.385000      0.000000     -0.000000
  Pt      1.385000     -0.000000      0.000000
  P      -1.538880     -1.214396     -2.063210
  P      -1.454382      1.279816      2.029914
  P      -1.445109      2.029020     -1.292045
  P      -1.513495     -2.046546      1.259015
  P       1.511578      1.278182      2.024455
  P       1.422070     -1.166199     -2.108351
  P       1.482648     -1.990240      1.327335
  P       1.464641      2.031060     -1.271817
  O      -0.055057     -1.208593     -2.781747
  O       0.037330      1.899493      2.324438
  O       0.023833      2.198964     -2.015372
  O       0.016294     -2.506239      1.717280
  O      -2.463574     -0.603857     -3.086333
  O      -1.925663      0.575022      3.276169
  O      -1.753790      3.318603     -0.564351
  O      -2.109414     -3.245063      0.565793
  O       1.995018      0.555768      3.258916
  O       2.346542     -0.608785     -3.154912
  O       2.195563     -3.262413      0.709924
  O       1.779979      3.308985     -0.531401
  O      -1.850654     -2.759139     -1.917094
  O      -2.308034      2.608654      1.868194
  O      -2.391643      1.914779     -2.555066
  O      -2.220347     -1.881053      2.662356
  O       2.391222      2.584352      1.858560
  O       1.752146     -2.734775     -1.874696
  O       2.242523     -1.861017      2.688635
  O       2.455585      1.910586     -2.499830
  H      -1.985510     -3.048431     -0.946706
  H      -2.173762      3.015746      0.956532
  H      -2.144310     -0.926398      3.017810
  H       2.240870      3.007659      0.954724
  H       2.099923     -3.301717     -0.269482
  H       2.201369     -0.884955      3.040896
  H       2.502290      0.973848     -2.871979
  H      -2.483695      0.954038     -2.874882
  H       1.896482     -3.249937     -2.685274
40
Coordinates from ORCA-job AgPtPOP_Krupp_ES_fitted E -4627.573048078887
  Ag      0.020000      5.250000     -0.000000
  Pt     -1.385000     -0.000000     -0.000000
  Pt      1.385000      0.000000      0.000000
  P      -1.542804     -1.215313     -2.066492
  P      -1.452318      1.274857      2.035298
  P      -1.447451      2.034192     -1.286524
  P      -1.518100     -2.047191      1.253776
  P       1.511215      1.276484      2.032341
  P       1.420984     -1.167119     -2.109272
  P       1.477584     -1.994405      1.324184
  P       1.460078      2.035020     -1.271762
  O      -0.057149     -1.225015     -2.779410
  O       0.037458      1.895202      2.333235
  O       0.019086      2.204043     -2.013188
  O       0.010488     -2.509801      1.712630
  O      -2.459513     -0.598455     -3.093462
  O      -1.922717      0.565310      3.279480
  O      -1.752952      3.323443     -0.557921
  O      -2.117126     -3.243200      0.558437
  O       1.995651      0.554442      3.266798
  O       2.336201     -0.604232     -3.161602
  O       2.193770     -3.265017      0.707656
  O       1.776519      3.313027     -0.532717
  O      -1.873273     -2.755448     -1.921499
  O      -2.306806      2.603118      1.878155
  O      -2.396742      1.922645     -2.547261
  O      -2.224265     -1.881398      2.657388
  O       2.388345      2.583735      1.868978
  O       1.769785     -2.730050     -1.868080
  O       2.230635     -1.865319      2.688712
  O       2.448233      1.914398     -2.501775
  H      -2.001180     -3.047495     -0.950883
  H      -2.169918      3.014749      0.967909
  H      -2.142966     -0.927920      3.014161
  H       2.232539      3.011382      0.966951
  H       2.112195     -3.298940     -0.273138
  H       2.179582     -0.889815      3.041572
  H       2.483862      0.980065     -2.882895
  H      -2.489771      0.961433     -2.868660
  H       1.981093     -3.233622     -2.671686
40
Coordinates from ORCA-job AgPtPOP_Krupp_ES_fitted E -4627.572899762741
  Ag      0.020000      5.250000      0.000000
  Pt     -1.385000      0.000000      0.000000
  Pt      1.385000     -0.000000     -0.000000
  P      -1.551626     -1.232357     -2.056551
  P      -1.448685      1.286889      2.028446
  P      -1.445966      2.027279     -1.296310
  P      -1.519407     -2.039758      1.270007
  P       1.514872      1.286966      2.025649
  P       1.416492     -1.182899     -2.103409
  P       1.475763     -1.986948      1.338554
  P       1.461923      2.028682     -1.278504
  O      -0.064277     -1.267814     -2.763293
  O       0.041595      1.907107      2.321467
  O       0.021571      2.194450     -2.021608
  O       0.009362     -2.498169      1.733153
  O      -2.458490     -0.613038     -3.090960
  O      -1.918448      0.586549      3.278476
  O      -1.751677      3.318609     -0.571887
  O      -2.120899     -3.241034      0.585831
  O       1.999180      0.573812      3.265623
  O       2.317319     -0.618819     -3.167798
  O       2.190954     -3.262074      0.730965
  O       1.777186      3.308765     -0.542800
  O      -1.904090     -2.766437     -1.902406
  O      -2.302769      2.614608      1.863260
  O      -2.393212      1.911146     -2.558224
  O      -2.222833     -1.861793      2.673349
  O       2.393483      2.591720      1.852550
  O       1.787794     -2.740093     -1.851349
  O       2.227718     -1.846777      2.702518
  O       2.451028      1.902838     -2.507442
  H      -2.025992     -3.053874     -0.929557
  H      -2.167418      3.017495      0.948870
  H      -2.135191     -0.906459      3.024862
  H       2.237905      3.011622      0.947501
  H       2.123761     -3.295125     -0.251490
  H       2.178577     -0.866365      3.044847
  H       2.481239      0.967390     -2.886537
  H      -2.479923      0.948134     -2.878233
  H       2.069992     -3.225659     -2.644428
40
Coordinates from ORCA-job AgPtPOP_Krupp_ES_fitted E -4627.572864620844
  Ag      0.020000      5.250000      0.000000
  Pt     -1.385000     -0.000000      0.000000
  Pt      1.385000      0.000000     -0.000000
  P      -1.563954     -1.251427     -2.038979
  P      -1.437447      1.300126      2.018842
  P      -1.445754      2.016415     -1.305572
  P      -1.524817     -2.030309      1.289966
  P       1.521750      1.297027      2.012612
  P       1.409766     -1.207350     -2.089657
  P       1.470497     -1.981794      1.353679
  P       1.463376      2.019705     -1.288662
  O      -0.074041     -1.330221     -2.734031
  O       0.051774      1.930096      2.293961
  O       0.022062      2.181969     -2.030046
  O       0.004825     -2.490816      1.751439
  O      -2.454936     -0.625051     -3.082746
  O      -1.892153      0.607937      3.279349
  O      -1.753457      3.309869     -0.585548
  O      -2.138201     -3.234000      0.620473
  O       1.993441      0.587041      3.259491
  O       2.296964     -0.645273     -3.166471
  O       2.179926     -3.260560      0.748493
  O       1.781185      3.303835     -0.560497
  O      -1.943271     -2.778790     -1.872459
  O      -2.300410      2.622398      1.848924
  O      -2.392873      1.892250     -2.567825
  O      -2.219096     -1.836093      2.695472
  O       2.412515      2.592671      1.833696
  O       1.808310     -2.761968     -1.832626
  O       2.222650     -1.837673      2.717599
  O       2.450172      1.883607     -2.519092
  H      -2.061910     -3.056332     -0.896819
  H      -2.169212      3.018245      0.931347
  H      -2.124527     -0.877449      3.038793
  H       2.256590      3.011631      0.928894
  H       2.123770     -3.291442     -0.235461
  H       2.184443     -0.852744      3.053767
  H       2.471226      0.946720     -2.893214
  H      -2.482136      0.926191     -2.877145
  H       2.109009     -3.230976     -2.628781
40
Coordinates from ORCA-job AgPtPOP_Krupp_ES_fitted E -4627.572719763964
  Ag      0.020000      5.250000     -0.000000
  Pt     -1.385000      0.000000      0.000000
  Pt      1.385000     -0.000000     -0.000000
  P      -1.577587     -1.260975     -2.030065
  P      -1.427390      1.306188      2.018415
  P      -1.440366      2.015259     -1.307767
  P      -1.533034     -2.025521      1.294979
  P       1.527367      1.298941      2.007631
  P       1.400562     -1.220617     -2.084041
  P       1.463548     -1.981304      1.356955
  P       1.469091      2.014263     -1.288240
  O      -0.085754     -1.371924     -2.715151
  O       0.060880      1.944338      2.281453
  O       0.028447      2.180094     -2.029962
  O      -0.003076     -2.493105      1.749235
  O      -2.453827     -0.627854     -3.082049
  O      -1.868722      0.616432      3.284892
  O      -1.750934      3.310189     -0.590656
  O      -2.157149     -3.226038      0.629475
  O       1.990340      0.589248      3.257744
  O       2.272384     -0.655689     -3.171930
  O       2.175729     -3.259623      0.755341
  O       1.790451      3.299800     -0.563205
  O      -1.981662     -2.781614     -1.857454
  O      -2.296759      2.624836      1.850934
  O      -2.385706      1.889527     -2.571084
  O      -2.219319     -1.828054      2.703912
  O       2.427062      2.588105      1.827294
  O       1.821453     -2.771775     -1.824138
  O       2.208646     -1.836895      2.724774
  O       2.456725      1.869360     -2.517331
  H      -2.090765     -3.056536     -0.879334
  H      -2.167020      3.022739      0.933748
  H      -2.117112     -0.869507      3.046275
  H       2.266124      3.011952      0.925701
  H       2.128026     -3.290072     -0.229393
  H       2.174504     -0.850801      3.057339
  H       2.471524      0.932062     -2.888777
  H      -2.471853      0.923570     -2.881999
  H       2.130255     -3.233197     -2.621831
40
Coordinates from ORCA-job AgPtPOP_Krupp_ES_fitted E -4627.572567358510
  Ag      0.020000      5.250000      0.000000
  Pt     -1.385000      0.000000      0.000000
  Pt      1.385000     -0.000000     -0.000000
  P      -1.586001     -1.260469     -2.031747
  P      -1.415745      1.304490      2.021183
  P      -1.438973      2.020645     -1.302318
  P      -1.539259     -2.026191      1.292100
  P       1.533141      1.294538      2.006611
  P       1.394873     -1.224179     -2.080876
  P       1.458762     -1.985788      1.353914
  P       1.469826      2.013765     -1.285862
  O      -0.091008     -1.399951     -2.704253
  O       0.070446      1.953131      2.273773
  O       0.028732      2.186074     -2.026256
  O      -0.009598     -2.504082      1.734787
  O      -2.443811     -0.615460     -3.091228
  O      -1.841933      0.611254      3.290641
  O      -1.749286      3.314855     -0.582828
  O      -2.173995     -3.221424      0.626996
  O       1.985652      0.582177      3.258565
  O       2.255268     -0.651346     -3.173575
  O       2.178072     -3.261222      0.755996
  O       1.796679      3.298940     -0.562837
  O      -2.018399     -2.773327     -1.861977
  O      -2.294092      2.617806      1.860413
  O      -2.386750      1.899254     -2.563489
  O      -2.217498     -1.830505      2.705207
  O       2.444555      2.575449      1.828145
  O       1.832855     -2.772243     -1.819481
  O       2.192932     -1.842909      2.727572
  O       2.456703      1.862040     -2.514884
  H      -2.116018     -3.052421     -0.882775
  H      -2.165030      3.023718      0.946261
  H      -2.114757     -0.871567      3.045469
  H       2.289930      2.998206      0.925052
  H       2.129813     -3.296034     -0.228766
  H       2.159868     -0.857353      3.057917
  H       2.459963      0.926757     -2.890768
  H      -2.470246      0.935366     -2.882315
  H       2.121559     -3.239226     -2.621370
40
Coordinates from ORCA-job AgPtPOP_Krupp_ES_fitted E -4627.572698460861
  Ag      0.020000      5.250000      0.000000
  Pt     -1.385000     -0.000000      0.000000
  Pt      1.385000      0.000000     -0.000000
  P      -1.592790     -1.251544     -2.036075
  P      -1.410849      1.299087      2.024334
  P      -1.434993      2.028169     -1.294592
  P      -1.540905     -2.031416      1.284174
  P       1.531693      1.289082      2.013594
  P       1.389952     -1.225140     -2.080148
  P       1.458343     -1.994392      1.347445
  P       1.472197      2.016907     -1.277450
  O      -0.094998     -1.420046     -2.696568
  O       0.071663      1.959036      2.271608
  O       0.032075      2.195096     -2.019864
  O      -0.012083     -2.524826      1.707198
  O      -2.430791     -0.590991     -3.100992
  O      -1.826788      0.599611      3.293234
  O      -1.745126      3.320462     -0.571200
  O      -2.188881     -3.218354      0.617186
  O       1.970334      0.571204      3.266565
  O       2.240427     -0.644501     -3.175902
  O       2.191291     -3.262956      0.752993
  O       1.801353      3.299127     -0.552207
  O      -2.056900     -2.755060     -1.871509
  O      -2.298145      2.606168      1.868922
  O      -2.383221      1.911583     -2.554746
  O      -2.204984     -1.841546      2.704800
  O       2.450141      2.566480      1.846183
  O       1.838490     -2.770448     -1.815908
  O       2.176596     -1.856329      2.729535
  O       2.462854      1.863256     -2.502942
  H      -2.139368     -3.040524     -0.892203
  H      -2.171439      3.018537      0.957318
  H      -2.086483     -0.887728      3.052441
  H       2.288241      3.004243      0.951165
  H       2.138344     -3.303038     -0.231358
  H       2.139562     -0.873526      3.063461
  H       2.462515      0.928746     -2.881909
  H      -2.460974      0.950382     -2.882538
  H       2.080012     -3.257243     -2.621104
40
Coordinates from ORCA-job AgPtPOP_Krupp_ES_fitted E -4627.572774916284
  Ag      0.020000      5.250000      0.000000
  Pt     -1.385000      0.000000      0.000000
  Pt      1.385000     -0.000000      0.000000
  P      -1.590308     -1.247366     -2.039371
  P      -1.413511      1.296057      2.025392
  P      -1.431965      2.031142     -1.291572
  P      -1.539223     -2.033177      1.278005
  P       1.529326      1.286526      2.014757
  P       1.393655     -1.220755     -2.083007
  P       1.460164     -1.995435      1.344918
  P       1.475917      2.020166     -1.272723
  O      -0.091719     -1.416029     -2.698062
  O       0.068863      1.957963      2.271529
  O       0.035997      2.199032     -2.015965
  O      -0.011048     -2.529302      1.696752
  O      -2.426193     -0.585290     -3.104989
  O      -1.828494      0.594757      3.293249
  O      -1.742000      3.321525     -0.564550
  O      -2.186752     -3.219028      0.608820
  O       1.966127      0.566379      3.266658
  O       2.240848     -0.636025     -3.178933
  O       2.197024     -3.262918      0.752817
  O       1.804361      3.300447     -0.543858
  O      -2.057652     -2.750452     -1.878044
  O      -2.300758      2.603077      1.871191
  O      -2.378958      1.918441     -2.552452
  O      -2.204090     -1.845012      2.698716
  O       2.448494      2.563997      1.849353
  O       1.845849     -2.763963     -1.820087
  O       2.175161     -1.858076      2.728974
  O       2.467711      1.870111     -2.497225
  H      -2.139609     -3.037205     -0.899405
  H      -2.169901      3.019646      0.962740
  H      -2.090703     -0.890604      3.045065
  H       2.293005      2.998587      0.952304
  H       2.141593     -3.304607     -0.231119
  H       2.140542     -0.876503      3.063933
  H       2.465444      0.937095     -2.881315
  H      -2.459172      0.956858     -2.879695
  H       2.076285     -3.256524     -2.624970
40
Coordinates from ORCA-job AgPtPOP_Krupp_ES_fitted E -4627.572788502574
  Ag      0.020000      5.250000      0.000000
  Pt     -1.385000     -0.000000      0.000000
  Pt      1.385000      0.000000     -0.000000
  P      -1.591405     -1.245321     -2.038606
  P      -1.413342      1.295698      2.024447
  P      -1.430570      2.031863     -1.290360
  P      -1.541834     -2.033075      1.276301
  P       1.529140      1.287825      2.014300
  P       1.394809     -1.219442     -2.083802
  P       1.457285     -1.997141      1.344413
  P       1.478295      2.021487     -1.271959
  O      -0.092087     -1.422044     -2.692466
  O       0.068303      1.961727      2.264909
  O       0.038028      2.199724     -2.014508
  O      -0.014497     -2.534281      1.687493
  O      -2.422617     -0.578686     -3.105252
  O      -1.824183      0.594768      3.293701
  O      -1.739437      3.320189     -0.560145
  O      -2.192877     -3.217790      0.608447
  O       1.961748      0.567958      3.267555
  O       2.234019     -0.629846     -3.183245
  O       2.197836     -3.264296      0.755227
  O       1.807404      3.300950     -0.542300
  O      -2.068698     -2.746191     -1.880591
  O      -2.304020      2.600104      1.869700
  O      -2.375219      1.921858     -2.553112
  O      -2.203304     -1.842589      2.698592
  O       2.449553      2.564747      1.849164
  O       1.858164     -2.758239     -1.821792
  O       2.167602     -1.859537      2.730981
  O       2.467968      1.871972     -2.497741
  H      -2.150447     -3.034436     -0.903012
  H      -2.175554      3.013968      0.960485
  H      -2.092194     -0.887424      3.043480
  H       2.297957      2.996758      0.950484
  H       2.146018     -3.304354     -0.228683
  H       2.138323     -0.877458      3.063835
  H       2.458307      0.940321     -2.886711
  H      -2.451324      0.959761     -2.882268
  H       2.086591     -3.252550     -2.626155
40
Coordinates from ORCA-job AgPtPOP_Krupp_ES_fitted E -4627.572672582410
  Ag      0.020000      5.250000     -0.000000
  Pt     -1.385000     -0.000000     -0.000000
  Pt      1.385000      0.000000      0.000000
  P      -1.589556     -1.246587     -2.037496
  P      -1.414370      1.296792      2.023593
  P      -1.428876      2.031867     -1.290654
  P      -1.545080     -2.032745      1.276100
  P       1.526088      1.288616      2.014213
  P       1.398269     -1.218864     -2.084567
  P       1.453634     -1.998241      1.341909
  P       1.480480      2.021928     -1.269915
  O      -0.089630     -1.430925     -2.686926
  O       0.066027      1.966369      2.258484
  O       0.040757      2.198870     -2.013562
  O      -0.017875     -2.540561      1.675970
  O      -2.417106     -0.578471     -3.106222
  O      -1.820632      0.595884      3.294361
  O      -1.736594      3.318772     -0.558709
  O      -2.203330     -3.214819      0.610616
  O       1.953353      0.568197      3.268868
  O       2.229950     -0.624030     -3.187009
  O       2.198528     -3.264000      0.753937
  O       1.809113      3.300516     -0.538910
  O      -2.073078     -2.746023     -1.880061
  O      -2.307995      2.599243      1.869785
  O      -2.371660      1.924082     -2.555212
  O      -2.197931     -1.840364      2.702202
  O       2.448792      2.564239      1.850748
  O       1.873023     -2.753612     -1.824728
  O       2.158086     -1.860366      2.731452
  O       2.470210      1.873216     -2.495344
  H      -2.156133     -3.033539     -0.903138
  H      -2.175237      3.016213      0.962712
  H      -2.082467     -0.886029      3.048516
  H       2.298756      2.996170      0.951969
  H       2.149953     -3.301792     -0.230003
  H       2.127706     -0.878125      3.064550
  H       2.458846      0.941087     -2.884510
  H      -2.451290      0.960373     -2.880663
  H       2.091106     -3.250927     -2.630137
40
Coordinates from ORCA-job AgPtPOP_Krupp_ES_fitted E -4627.572673114105
  Ag      0.020000      5.250000     -0.000000
  Pt     -1.385000     -0.000000     -0.000000
  Pt      1.385000      0.000000      0.000000
  P      -1.585899     -1.246000     -2.037780
  P      -1.418021      1.297550      2.023359
  P      -1.426803      2.031479     -1.291578
  P      -1.549133     -2.032988      1.275181
  P       1.521155      1.287007      2.015954
  P       1.402366     -1.214668     -2.086424
  P       1.449650     -2.000045      1.338574
  P       1.482693      2.022530     -1.267703
  O      -0.085927     -1.429792     -2.686985
  O       0.061901      1.967040      2.257377
  O       0.043870      2.198817     -2.012638
  O      -0.021567     -2.545608      1.667050
  O      -2.414746     -0.578204     -3.106058
  O      -1.824487      0.598021      3.295082
  O      -1.734569      3.318068     -0.559612
  O      -2.212587     -3.212206      0.609726
  O       1.944306      0.563692      3.270507
  O       2.231405     -0.615638     -3.189020
  O       2.196550     -3.265000      0.749648
  O       1.809556      3.300309     -0.534487
  O      -2.067531     -2.746377     -1.881284
  O      -2.312223      2.599613      1.868213
  O      -2.366669      1.923728     -2.558784
  O      -2.196238     -1.840825      2.703789
  O       2.445705      2.561925      1.856880
  O       1.880718     -2.747557     -1.829015
  O       2.150059     -1.863562      2.730310
  O       2.473279      1.876254     -2.492579
  H      -2.155267     -3.033336     -0.905150
  H      -2.177982      3.015179      0.960589
  H      -2.082441     -0.885923      3.049835
  H       2.293948      2.998093      0.960166
  H       2.150019     -3.300142     -0.234382
  H       2.116517     -0.881431      3.065935
  H       2.461003      0.944400     -2.883284
  H      -2.443550      0.959636     -2.884337
  H       2.089652     -3.248241     -2.634822
40
Coordinates from ORCA-job AgPtPOP_Krupp_ES_fitted E -4627.572712164396
  Ag      0.020000      5.250000     -0.000000
  Pt     -1.385000     -0.000000     -0.000000
  Pt      1.385000      0.000000      0.000000
  P      -1.585105     -1.248467     -2.036465
  P      -1.419915      1.298984      2.022132
  P      -1.426763      2.030054     -1.294109
  P      -1.550386     -2.032293      1.277478
  P       1.518877      1.286877      2.016084
  P       1.402779     -1.214333     -2.086679
  P       1.448337     -2.000071      1.338836
  P       1.482298      2.022528     -1.268663
  O      -0.085653     -1.432459     -2.686171
  O       0.060147      1.967078      2.257995
  O       0.044034      2.197321     -2.014565
  O      -0.022324     -2.546522      1.667214
  O      -2.414628     -0.581866     -3.105156
  O      -1.828827      0.600607      3.293995
  O      -1.734640      3.317621     -0.563670
  O      -2.216904     -3.210361      0.613129
  O       1.941112      0.563075      3.270969
  O       2.229900     -0.613791     -3.190213
  O       2.195629     -3.265004      0.749747
  O       1.807463      3.300511     -0.534868
  O      -2.065358     -2.749043     -1.878107
  O      -2.313393      2.601589      1.865429
  O      -2.366338      1.920630     -2.561765
  O      -2.193990     -1.839386      2.707288
  O       2.444872      2.560647      1.857940
  O       1.883801     -2.746441     -1.830029
  O       2.147577     -1.862867      2.730909
  O       2.474149      1.877712     -2.492889
  H      -2.157851     -3.034218     -0.901897
  H      -2.178113      3.015681      0.956868
  H      -2.081821     -0.883483      3.051655
  H       2.294300      2.996309      0.960586
  H       2.153175     -3.298156     -0.234666
  H       2.111373     -0.879969      3.066572
  H       2.463108      0.945881     -2.883538
  H      -2.444016      0.956096     -2.885509
  H       2.100072     -3.244480     -2.635572
40
Coordinates from ORCA-job AgPtPOP_Krupp_ES_fitted E -4627.572707727036
  Ag      0.020000      5.250000      0.000000
  Pt     -1.385000     -0.000000      0.000000
  Pt      1.385000      0.000000     -0.000000
  P      -1.585320     -1.249649     -2.036477
  P      -1.419483      1.298928      2.022141
  P      -1.427374      2.029417     -1.294683
  P      -1.549777     -2.032886      1.278505
  P       1.519232      1.286413      2.014906
  P       1.402150     -1.214152     -2.086663
  P       1.448924     -1.999830      1.338454
  P       1.481146      2.022736     -1.268973
  O      -0.086174     -1.433879     -2.686290
  O       0.060936      1.966181      2.259822
  O       0.043063      2.197590     -2.015017
  O      -0.021158     -2.547529      1.667340
  O      -2.414358     -0.583273     -3.105714
  O      -1.830047      0.600436      3.293521
  O      -1.735661      3.317790     -0.565033
  O      -2.217362     -3.210340      0.614321
  O       1.942813      0.562671      3.269606
  O       2.228675     -0.613219     -3.190555
  O       2.196556     -3.264224      0.748793
  O       1.806045      3.300616     -0.534639
  O      -2.064764     -2.750143     -1.877091
  O      -2.312121      2.602295      1.865587
  O      -2.367742      1.918836     -2.561700
  O      -2.191254     -1.841401      2.709213
  O       2.445094      2.560022      1.855856
  O       1.883868     -2.746405     -1.830015
  O       2.148454     -1.862010      2.730112
  O       2.473502      1.878573     -2.493093
  H      -2.158152     -3.035051     -0.900525
  H      -2.176849      3.016270      0.956582
  H      -2.082826     -0.884328      3.051922
  H       2.291627      2.996857      0.959523
  H       2.155995     -3.296663     -0.235815
  H       2.113566     -0.878012      3.063910
  H       2.461252      0.947648     -2.885283
  H      -2.445719      0.954548     -2.885413
  H       2.107816     -3.241871     -2.634970
40
Coordinates from ORCA-job AgPtPOP_Krupp_ES_fitted E -4627.572708186004
  Ag      0.020000      5.250000      0.000000
  Pt     -1.385000     -0.000000      0.000000
  Pt      1.385000      0.000000     -0.000000
  P      -1.586126     -1.249549     -2.036405
  P      -1.418902      1.298784      2.022138
  P      -1.427559      2.029346     -1.294283
  P      -1.549730     -2.032735      1.277912
  P       1.519861      1.286026      2.014909
  P       1.401385     -1.214036     -2.087398
  P       1.448877     -2.000809      1.337553
  P       1.480792      2.023087     -1.268575
  O      -0.087168     -1.434585     -2.686320
  O       0.061689      1.966403      2.260224
  O       0.042694      2.198133     -2.014656
  O      -0.021287     -2.549757      1.664136
  O      -2.414768     -0.583018     -3.105733
  O      -1.829893      0.600043      3.293139
  O      -1.736393      3.317647     -0.564476
  O      -2.219182     -3.209108      0.613855
  O       1.942827      0.561734      3.269502
  O       2.226854     -0.612475     -3.191600
  O       2.197249     -3.264453      0.747583
  O       1.805868      3.300868     -0.534206
  O      -2.066089     -2.749689     -1.876178
  O      -2.311310      2.602258      1.865567
  O      -2.368291      1.918565     -2.560805
  O      -2.188789     -1.841668      2.709711
  O       2.446555      2.559050      1.856266
  O       1.883799     -2.746409     -1.831403
  O       2.147430     -1.863908      2.729704
  O       2.473275      1.878797     -2.492578
  H      -2.160136     -3.033722     -0.899234
  H      -2.176583      3.016068      0.956465
  H      -2.080954     -0.884259      3.051592
  H       2.294999      2.995034      0.959224
  H       2.155885     -3.297320     -0.236933
  H       2.112965     -0.880099      3.063958
  H       2.461091      0.947841     -2.884513
  H      -2.445217      0.954682     -2.885703
  H       2.105798     -3.242364     -2.636542
40
Coordinates from ORCA-job AgPtPOP_Krupp_ES_fitted E -4627.572723503810
  Ag      0.020000      5.250000      0.000000
  Pt     -1.385000      0.000000      0.000000
  Pt      1.385000     -0.000000     -0.000000
  P      -1.584865     -1.249460     -2.036680
  P      -1.420146      1.298843      2.021849
  P      -1.427584      2.029344     -1.294333
  P      -1.549321     -2.032713      1.277244
  P       1.518817      1.286154      2.015266
  P       1.402815     -1.212923     -2.088011
  P       1.449167     -2.001315      1.336412
  P       1.480825      2.023649     -1.267894
  O      -0.085858     -1.434598     -2.686313
  O       0.060527      1.966726      2.260259
  O       0.042810      2.198514     -2.014342
  O      -0.020900     -2.552857      1.658830
  O      -2.413245     -0.583065     -3.106200
  O      -1.831664      0.600018      3.292512
  O      -1.736852      3.317390     -0.564297
  O      -2.221116     -3.207845      0.613478
  O       1.941122      0.561291      3.269759
  O       2.227262     -0.609940     -3.192027
  O       2.199827     -3.263712      0.746794
  O       1.805603      3.301039     -0.532924
  O      -2.064669     -2.749579     -1.876156
  O      -2.312218      2.602413      1.864981
  O      -2.368144      1.918641     -2.560753
  O      -2.184835     -1.842099      2.710689
  O       2.445392      2.559421      1.857477
  O       1.886809     -2.744910     -1.833023
  O       2.145463     -1.864300      2.729610
  O       2.473360      1.880078     -2.491863
  H      -2.159641     -3.032958     -0.899056
  H      -2.177685      3.015913      0.955826
  H      -2.078172     -0.884254      3.051859
  H       2.294531      2.995467      0.960427
  H       2.157952     -3.297071     -0.237588
  H       2.111241     -0.880432      3.063698
  H       2.460424      0.949385     -2.884679
  H      -2.444821      0.954755     -2.885904
  H       2.105517     -3.241813     -2.638448
