!RIJCOSX  B3LYP def2-TZVP def2/J Opt CPCM(Water) SlowConv

%pal
nprocs 16
end

%geom Constraints
   { C 0 C }
   { C 1 C }
   { C 2 C }
   end
end

*xyz -2 3  
Ag      0.020000      5.250000      0.000000
Pt     -1.385000      0.000000      0.000000
Pt      1.385000      0.000000     -0.000000
P      -1.532007     -1.372051     -1.933680
P      -1.475960      1.443887      1.886517
P      -1.502353      1.838946     -1.495935
P      -1.559933     -1.901236      1.407706
P       1.543877      1.482186      1.860550
P       1.446881     -1.377025     -1.935181
P       1.504847     -1.797804      1.499398
P       1.518682      1.823315     -1.510583
O      -0.021533     -1.283737     -2.645705
O       0.039370      2.202896      1.936448
O       0.015983      2.010978     -2.166227
O       0.025580     -2.328197      1.826869
O      -2.495367     -0.966224     -3.026787
O      -1.784424      0.884522      3.252127
O      -1.850592      3.238303     -0.921674
O      -2.150498     -3.170123      0.827099
O       1.912185      0.929381      3.219800
O       2.492639     -1.072979     -2.977351
O       2.277602     -3.122952      1.016315
O       1.903883      3.216609     -0.950384
O      -1.567155     -2.959847     -1.642251
O      -2.377957      2.776135      1.670285
O      -2.399318      1.637010     -2.792810
O      -2.190892     -1.645759      2.846952
O       2.446451      2.802676      1.610912
O       1.465199     -3.016622     -1.612434
O       2.192221     -1.561878      2.897824
O       2.424997      1.586690     -2.800889
H      -1.865989     -3.139574     -0.676594
H      -2.393682      3.006092      0.708929
H      -2.062570     -0.681785      3.123849
H       2.449122      3.018645      0.643355
H       2.084492     -3.278162      0.067494
H       2.118341     -0.564028      3.148130
H       2.540639      0.604746     -2.978433
H      -2.513724      0.647557     -2.989246
H       0.551975     -3.351538     -1.679457
end
