39
Properties=species:S:1:pos:R:3 generated=T by=T VMD=T pbc="F F F"
Ag       0.22924154      -0.20638909       4.00599242
Pt      -0.06962030       0.06116423      -1.18353272
Pt       0.09367372      -0.08220765       1.58796138
P        1.38321323       1.96222769      -1.45157871
P        1.70209904       1.65547155       1.45563775
O        1.63264029       2.51553462       0.06738952
O        0.72996960       3.23826206      -2.12560096
O        3.13872085       1.28092284       1.71727750
O        2.73311956       1.75305215      -2.09681719
O        1.28120367       2.76666905       2.51451959
H        2.99218742       0.28018091      -2.35611268
H        3.21031920      -0.26637890       2.08509465
P        1.79500809      -1.38862379      -1.65106753
P        1.81061639      -1.68782899       1.27499136
O        2.51184640      -1.62861852      -0.20053718
O        2.98797800      -0.73599538      -2.46386237
O        1.47275422      -3.12288602       1.58926016
O        1.51973523      -2.74096064      -2.26518241
O        3.03085459      -1.25486348       2.20088689
H        0.02907763      -3.00624722      -2.35294349
H       -0.02185455      -3.19286837       2.12980327
P       -1.55538414      -1.81091201      -1.47212673
P       -1.52997822      -1.80638453       1.46938935
O       -1.63166039      -2.51760381       0.00105279
O       -0.99309368      -3.00799493      -2.34381806
O       -2.92324590      -1.46983056       1.93680095
O       -2.96930314      -1.54370672      -1.93264086
O       -0.99361480      -3.01862171       2.34989711
H       -2.94067345       0.03030003       2.46858966
H       -3.24776300      -0.05356080      -2.00571135
P       -1.96709787       1.53994880      -1.27415931
P       -1.63847652       1.53610129       1.64891382
O       -2.50790468       1.62434930       0.26738445
O       -3.25108416       0.96841087      -2.00494209
O       -1.25730845       2.93374935       2.06603871
O       -1.75711594       2.95124089      -1.77075269
O       -2.74439055       1.00349472       2.66196686
H       -0.28571412       3.23249412      -2.01217493
H        0.29202781       2.95941771       2.42803586
