59
Properties=species:S:1:pos:R:3:tags:I:1:momenta:R:3 Coordinates=T from=T ORCA-job=T terpy_GS=T pbc="T T T"
Fe       0.00000000       0.00000000       0.00000000        2      -0.79771379      -1.04176056       0.34577097
N       -0.26086598       0.68974296      -1.66929672        2      -0.44294071       0.34316876       0.77146867
N        1.59869198       1.28698124      -0.07529064        2       0.42356721      -0.27370851      -0.34406732
C       -0.87385915       1.82535599      -4.11454762        2      -0.30759280      -0.30579535      -0.08089510
C        0.48256483       1.79023321      -2.13106174        2      -0.12149149       0.53452541      -0.38716046
C        0.18415590       2.40066849      -3.36017843        2      -0.17495992       0.07011246       0.26883845
C        1.50816908       2.10839437      -1.13733615        2       0.03683273      -0.10056442       0.15028679
C        2.50445841       1.56947917       0.88420197        2       0.24753267       0.30910581       0.69543791
C        2.43075814       3.11543526      -1.32908801        2       0.38938569      -0.73771388       0.88156806
C        3.53816738       2.46028232       0.73599918        2       0.30844021       0.21542925       0.33254303
C        3.48652522       3.34237311      -0.40765124        2       0.74305767       0.19327176       0.14576687
H       -1.23433135       2.31854789      -5.01744668        2       0.17961884       0.25777864       0.14224643
H        0.85616449       3.18809574      -3.70053329        2       0.08258514      -0.09378009      -0.02864933
H        4.22716108       4.11565120      -0.61324251        2       0.13498845      -0.02705318       0.17027095
H        2.37482299       3.82331334      -2.15582362        2      -0.11861617       0.03558337       0.22825895
H        4.20354523       2.71588058       1.56039609        2      -0.07013184      -0.08384451       0.13231247
H        2.60819804       0.90804459       1.74331156        2       0.10101271       0.00275705       0.01165791
N        0.24643394      -0.57036056       1.77262929        2      -0.39672092      -0.16515917       0.01390047
N        1.12037104      -1.59435276      -0.35802236        2      -0.55232930      -0.60684505      -0.71754217
C        1.11988578      -1.07384157       4.33792557        2      -0.41357855      -0.56400600       0.31159006
C        1.14149436      -1.58504310       2.01159982        2      -0.60255727      -0.17618110      -0.57809823
C        1.56749316      -1.89117686       3.31761217        2       0.31545093       0.54637300      -0.29475984
C        1.63979385      -2.20721214       0.79156359        2      -0.44139564       0.27924527      -0.30310829
C        1.40616656      -2.08836698      -1.60754080        2      -0.37694958      -0.13194068      -0.05600252
C        2.54672352      -3.29939184       0.61239117        2       0.02045764      -0.65299956       1.41635663
C        2.36829501      -3.10058237      -1.78435909        2      -0.08171870       0.69747098       0.38287632
C        2.92245677      -3.69337713      -0.66351035        2      -0.09043153       0.10867750       1.08324146
H        1.36208972      -1.25690390       5.38493591        2       0.00212121       0.14670631       0.09740375
H        2.32430781      -2.66432707       3.44780040        2       0.17410541       0.15168669       0.09578481
H        3.61510381      -4.52288109      -0.80818761        2       0.06270896       0.06752442       0.07730632
H        2.92106151      -3.73490506       1.53862613        2       0.11721915      -0.04005992       0.06245134
H        2.66911098      -3.37273001      -2.79585988        2       0.18781243       0.13178706       0.05429281
H        0.83394466      -1.68084838      -2.43989745        2      -0.08398736       0.09432429       0.14629067
N       -1.13170689       1.31545168       0.89378114        2      -0.49233303       0.68373729       0.39060395
C       -0.18433750       0.21774500       2.77096911        2      -0.42200214      -0.69928469      -0.42258911
C        0.25853843       0.00471632       4.09285991        2      -0.73130758      -0.54973040      -0.06352873
C       -1.03984855       1.32615535       2.27810832        2       0.25542885       0.34484210      -0.17527108
C       -2.05551523       2.24664307       0.35306490        2       0.21819802      -0.30731126      -0.13874961
C       -1.66094184       2.25847377       3.13369296        2      -0.45116889       0.80888680       0.43920400
C       -2.72918417       3.15921265       1.17548586        2       1.40748076      -0.23714662      -0.96498773
C       -2.48449682       3.23942830       2.57749693        2       0.84512675       0.65392569      -0.16562051
H        0.00453435       0.59177421       4.97508641        2       0.08591357       0.03265565      -0.02301651
H       -2.98798403       3.99347157       3.18304428        2      -0.00820370       0.12204267      -0.10154077
H       -1.44753712       2.25014306       4.20238419        2       0.13216612      -0.02773944      -0.04506811
H       -3.34240251       3.92093133       0.69440753        2      -0.25830804      -0.23221841       0.10210501
H       -2.02522590       2.35266216      -0.73052608        2       0.18103554       0.20692879       0.04776483
N       -1.54456820      -1.13262194      -0.46413638        2      -0.33871518       0.57360072      -0.16387845
C       -1.26216491       0.16695004      -2.47611295        2      -0.19777590       0.54655137       0.30130137
C       -1.65030013       0.76751138      -3.68550916        2      -0.24453909       0.21522384       0.33782653
C       -1.89862047      -0.96097951      -1.80078771        2       0.54012943       0.31500664       0.04508407
C       -2.35747271      -1.95740891       0.25864495        2       0.59267141      -0.34499943      -0.11492231
C       -2.96961382      -1.67478480      -2.39278637        2       0.91443288      -0.39861116      -0.76146976
C       -3.43697855      -2.68422508      -0.27847318        2      -0.23608917      -0.06073181      -0.35084810
C       -3.68600435      -2.57444421      -1.69587388        2      -0.34813744      -0.15670497      -0.55886942
H       -2.49670889       0.37826205      -4.25080185        2       0.02754184      -0.09491792      -0.01284693
H       -4.62557271      -2.98588818      -2.06559459        2      -0.01055564      -0.15208862       0.01457432
H       -3.15066006      -1.63578059      -3.46675696        2      -0.00718050       0.24860765       0.03929736
H       -4.04745073      -3.33862413       0.34343840        2       0.04856067      -0.15479159      -0.15722531
H       -2.20564099      -2.03412901       1.33446465        2      -0.26162832      -0.21860165       0.01811833
