     1  Tl   0.509662
     2  Pt  -0.492530
     3  Pt  -0.477455
     4  P    0.732287
     5  P    0.937880
     6  O   -0.408569
     7  O   -0.656664
     8  O   -0.648578
     9  O   -0.585969
    10  O   -0.729150
    11  H    0.346160
    12  H    0.379715
    13  P    0.734664
    14  P    0.940570
    15  O   -0.409546
    16  O   -0.661074
    17  O   -0.649735
    18  O   -0.581680
    19  O   -0.730135
    20  H    0.339439
    21  H    0.380146
    22  P    0.732399
    23  P    0.938133
    24  O   -0.408379
    25  O   -0.656613
    26  O   -0.649618
    27  O   -0.586282
    28  O   -0.729268
    29  H    0.380724
    30  H    0.346207
    31  P    0.733650
    32  P    0.941427
    33  O   -0.409681
    34  O   -0.660759
    35  O   -0.649023
    36  O   -0.581810
    37  O   -0.730344
    38  H    0.340063
    39  H    0.379733

